﻿{
  "client_list": [
    {
      "client_name": "Jason Meade",
      "start_time": "2017-05-04T12:00:00.000Z",
      "end_time": "2017-05-06T24:00:00.000Z"
    },
    {
      "client_name": "Travelers",
      "start_time": "2017-05-09T16:00:00.000Z",
      "end_time": "2017-05-11T00:00:00.000Z"
    }
  ]
}